<?xml version="1.0" standalone="no"?><!-- Generator: Gravit.io -->
<svg xmlns="http://www.w3.org/2000/svg"
    xmlns:xlink="http://www.w3.org/1999/xlink" style="isolation:isolate" viewBox="0 0 160 21" width="160" height="21">
    <defs>
        <clipPath id="_clipPath_Xh4V6OuR0nIpjncOPf0gi3MHgiT7pNOj">
            <rect width="160" height="21"/>
        </clipPath>
    </defs>
    <g clip-path="url(#_clipPath_Xh4V6OuR0nIpjncOPf0gi3MHgiT7pNOj)">
        <clipPath id="_clipPath_kU7E5JDxgtbp4dcKRToKh4ClgFWK37QV">
            <rect x="0" y="1" width="151" height="30" transform="matrix(1,0,0,1,0,0)" fill="rgb(255,255,255)"/>
        </clipPath>
        <g clip-path="url(#_clipPath_kU7E5JDxgtbp4dcKRToKh4ClgFWK37QV)">
            <g id="Group">
                <clipPath id="_clipPath_ZwpzGPlNYc5CxxkHFLRp9NgZ2JnJSY7e">
                    <rect x="0" y="1" width="150" height="35" transform="matrix(1,0,0,1,0,0)" fill="rgb(255,255,255)"/>
                </clipPath>
                <g clip-path="url(#_clipPath_ZwpzGPlNYc5CxxkHFLRp9NgZ2JnJSY7e)">
                    <g id="Group">
                        <g id="Group">
                            <text x="10" y="16" fill="white" font-family="arial" style="font-size:18px;font-weight:bold;">CARE SERVICE</text>
                        </g>
                    </g>
                </g>
            </g>
        </g>
    </g>
</svg>
